Decision Modeling - 5 The Forecasting Process (Benchmarks)
…
We’ll create a time variable so that we can run the Least Squares method. An object with the fit of every method discussed above is then created with the model function.

calits  %>% mutate(time=1:n()) -> calits

fit <- model(calits,mean=MEAN(average_price),
              Naive=NAIVE(average_price),
              Drift=RW(average_price~drift()),
              LS=TSLM(average_price~date))

augment(fit)

# A tsibble: 820 x 7 [7D]
# Key:       geography, .model [4]
   geography  .model date       average_price .fitted .resid .innov
   <chr>      <chr>  <date>             <dbl>   <dbl>  <dbl>  <dbl>
 1 California mean   2015-01-04          1.24    1.70 -0.462 -0.462
 2 California mean   2015-01-11          1.1     1.70 -0.602 -0.602
 3 California mean   2015-01-18          1.24    1.70 -0.462 -0.462
 4 California mean   2015-01-25          1.3     1.70 -0.402 -0.402
 5 California mean   2015-02-01          1.11    1.70 -0.592 -0.592
 6 California mean   2015-02-08          1.35    1.70 -0.352 -0.352
 7 California mean   2015-02-15          1.52    1.70 -0.182 -0.182
 8 California mean   2015-02-22          1.41    1.70 -0.292 -0.292
 9 California mean   2015-03-01          1.15    1.70 -0.552 -0.552
10 California mean   2015-03-08          1.48    1.70 -0.222 -0.222
# … with 810 more rows
…
