Decision Modeling - 4 Time Series Tools
…
ℹ Use `spec()` to retrieve the full column specification for this data.
ℹ Specify the column types or set `show_col_types = FALSE` to quiet this message.

The function imports the data a a tibble (a data structure similar to a data frame). There are three variables that are classified as character, while the rest are double. At this point you can preview the data with either the spec() or glimpse() commands.

When using dplyr it’s always helpful to use piping. Generally speaking, piping allows us to chain functions. Piping (%>%) passes the object on the left of the pipe as the first argument to the right of the pipe. We can illustrate this by using the select() function.

avocado %>% select(c(average_price,geography)) %>%
  arrange(desc(average_price)) 

# A tibble: 33,045 × 2
   average_price geography           
           <dbl> <chr>               
 1          3.25 San Francisco       
 2          3.17 Tampa               
 3          3.12 San Francisco       
 4          3.05 Miami/Ft. Lauderdale
 5          3.04 Raleigh/Greensboro  
 6          3.03 Las Vegas           
 7          3    San Francisco       
 8          3    Raleigh/Greensboro  
 9          2.99 San Francisco       
10          2.99 Jacksonville        
# … with 33,035 more rows
…
